<?xml version="1.0" encoding="UTF-8" standalone="no"?>
<!-- Created with Inkscape (http://www.inkscape.org/) -->

<svg
   width="250mm"
   height="99.999428mm"
   viewBox="0 0 250 99.999428"
   version="1.1"
   id="svg2019"
   inkscape:version="1.2.1 (9c6d41e410, 2022-07-14, custom)"
   sodipodi:docname="hae_dot_logo.svg"
   xmlns:inkscape="http://www.inkscape.org/namespaces/inkscape"
   xmlns:sodipodi="http://sodipodi.sourceforge.net/DTD/sodipodi-0.dtd"
   xmlns="http://www.w3.org/2000/svg"
   xmlns:svg="http://www.w3.org/2000/svg"
   xmlns:rdf="http://www.w3.org/1999/02/22-rdf-syntax-ns#"
   xmlns:cc="http://creativecommons.org/ns#"
   xmlns:dc="http://purl.org/dc/elements/1.1/">
  <title
     id="title3559">HAE Dot Logogram</title>
  <sodipodi:namedview
     id="namedview2021"
     pagecolor="#505050"
     bordercolor="#eeeeee"
     borderopacity="1"
     inkscape:showpageshadow="0"
     inkscape:pageopacity="0"
     inkscape:pagecheckerboard="0"
     inkscape:deskcolor="#505050"
     inkscape:document-units="mm"
     showgrid="false"
     inkscape:zoom="0.69977474"
     inkscape:cx="479.44"
     inkscape:cy="225.07243"
     inkscape:window-width="1920"
     inkscape:window-height="1051"
     inkscape:window-x="0"
     inkscape:window-y="29"
     inkscape:window-maximized="1"
     inkscape:current-layer="layer1">
    <inkscape:grid
       type="xygrid"
       id="grid3507"
       originx="-15"
       originy="-45.000574" />
  </sodipodi:namedview>
  <defs
     id="defs2016" />
  <g
     inkscape:label="Layer 1"
     inkscape:groupmode="layer"
     id="layer1"
     transform="translate(-15,-45.000575)">
    <circle
       id="path2075"
       cx="50"
       cy="100"
       style="stroke-width:0.0262349"
       r="5" />
    <rect
       id="rect2806"
       width="10"
       height="90"
       x="15"
       y="55"
       style="stroke-width:0.264583" />
    <rect
       id="rect2806-3"
       width="10"
       height="90"
       x="75"
       y="55"
       style="stroke-width:0.265;stroke-dasharray:none" />
    <path
       style="fill:none;stroke:#000000;stroke-width:9;stroke-linecap:butt;stroke-linejoin:bevel;stroke-dasharray:none;stroke-opacity:1"
       d="m 104.08335,133.17799 40.02469,-86.212597 41.84181,86.212597"
       id="path2907"
       sodipodi:nodetypes="ccc" />
    <circle
       id="path2075-6"
       cx="145"
       cy="100"
       style="stroke-width:0.026;stroke-dasharray:none"
       r="5" />
    <circle
       id="path2075-6-7"
       cx="240"
       cy="101.69764"
       style="stroke-width:0.0262349"
       r="5" />
    <path
       style="fill:none;stroke:#000000;stroke-width:9.25;stroke-linecap:butt;stroke-linejoin:miter;stroke-dasharray:none;stroke-opacity:1"
       d="m 265,59.197639 h -55 v 80.802931 h 55"
       id="path3531"
       sodipodi:nodetypes="cccc" />
  </g>
  <metadata
     id="metadata3557">
    <rdf:RDF>
      <cc:Work
         rdf:about="">
        <cc:license
           rdf:resource="http://creativecommons.org/licenses/by-sa/4.0/" />
        <dc:creator>
          <cc:Agent>
            <dc:title>Hector A. Escobedo</dc:title>
          </cc:Agent>
        </dc:creator>
        <dc:date>2022</dc:date>
        <dc:title>HAE Dot Logogram</dc:title>
      </cc:Work>
      <cc:License
         rdf:about="http://creativecommons.org/licenses/by-sa/4.0/">
        <cc:permits
           rdf:resource="http://creativecommons.org/ns#Reproduction" />
        <cc:permits
           rdf:resource="http://creativecommons.org/ns#Distribution" />
        <cc:requires
           rdf:resource="http://creativecommons.org/ns#Notice" />
        <cc:requires
           rdf:resource="http://creativecommons.org/ns#Attribution" />
        <cc:permits
           rdf:resource="http://creativecommons.org/ns#DerivativeWorks" />
        <cc:requires
           rdf:resource="http://creativecommons.org/ns#ShareAlike" />
      </cc:License>
    </rdf:RDF>
  </metadata>
</svg>
